%YAML 1.1
%TAG !u! tag:unity3d.com,2011:
--- !u!21 &2100000
Material:
  serializedVersion: 6
  m_ObjectHideFlags: 0
  m_CorrespondingSourceObject: {fileID: 0}
  m_PrefabInstance: {fileID: 0}
  m_PrefabAsset: {fileID: 0}
  m_Name: Bridge_MAT
  m_Shader: {fileID: 4800000, guid: 4b4365b63d1e0aa41924937ad296387f, type: 3}
  m_ShaderKeywords: 
  m_LightmapFlags: 4
  m_EnableInstancingVariants: 0
  m_DoubleSidedGI: 0
  m_CustomRenderQueue: -1
  stringTagMap: {}
  disabledShaderPasses: []
  m_SavedProperties:
    serializedVersion: 3
    m_TexEnvs:
    - _DissolveTex:
        m_Texture: {fileID: 2800000, guid: 2a24e0f6af87124438cfc9ae485319ae, type: 3}
        m_Scale: {x: 2, y: 0.1}
        m_Offset: {x: 0, y: 0}
    m_Floats:
    - _DissolveEdge: 1
    - _DissolveTreshold: 0.5
    m_Colors:
    - _Color: {r: 0, g: 0, b: 0, a: 1}
