%YAML 1.1
%TAG !u! tag:unity3d.com,2011:
--- !u!21 &2100000
Material:
  serializedVersion: 6
  m_ObjectHideFlags: 0
  m_CorrespondingSourceObject: {fileID: 0}
  m_PrefabInstance: {fileID: 0}
  m_PrefabAsset: {fileID: 0}
  m_Name: WaterBlack_MAT
  m_Shader: {fileID: 4800000, guid: 8345560cd43814c47aaced9779169d0d, type: 3}
  m_ShaderKeywords: 
  m_LightmapFlags: 4
  m_EnableInstancingVariants: 0
  m_DoubleSidedGI: 0
  m_CustomRenderQueue: -1
  stringTagMap: {}
  disabledShaderPasses: []
  m_SavedProperties:
    serializedVersion: 3
    m_TexEnvs:
    - _SurfaceDistortion:
        m_Texture: {fileID: 2800000, guid: 5c48c6d3bf9314b4ead1ee30ca55d210, type: 3}
        m_Scale: {x: 1, y: 1}
        m_Offset: {x: 0, y: 0}
    - _SurfaceNoise:
        m_Texture: {fileID: 2800000, guid: 2a24e0f6af87124438cfc9ae485319ae, type: 3}
        m_Scale: {x: 1, y: 4}
        m_Offset: {x: 0, y: 0}
    m_Floats:
    - _DepthMaxDistance: 1
    - _FoamDistance: 0.4
    - _FoamMaxDistance: 0.4
    - _FoamMinDistance: 0.04
    - _SurfaceDistortionAmount: 0.358
    - _SurfaceNoiseCutoff: 0.777
    m_Colors:
    - _DepthGradientDeep: {r: 0, g: 0, b: 0, a: 0.9019608}
    - _DepthGradientShallow: {r: 0.3490566, g: 0.3490566, b: 0.3490566, a: 0.725}
    - _FoamColor: {r: 1, g: 1, b: 1, a: 1}
    - _SurfaceNoiseScroll: {r: 0.03, g: 0.03, b: 0, a: 0}
